Free time & chunking modeling – Experiment 3
…
Trying priors of the gain parameter

Like for Experiment 1, restrict the gain to be ~ 25

Code
fits1_e3 |>
  filter(priors_scenario == "gain", exclude_sp1 == TRUE, convergence == 0) |>
  select(prop:convergence) |>
  arrange(deviance) |>
  mutate_all(round, 3) |>
  print(n = 10)

# A tibble: 100 × 7
    prop prop_ltm  rate   tau  gain deviance convergence
   <dbl>    <dbl> <dbl> <dbl> <dbl>    <dbl>       <dbl>
 1 0.204    0.811  0.01 0.132  25.0     765.           0
 2 0.204    0.81   0.01 0.132  25.0     765.           0
 3 0.204    0.811  0.01 0.132  25       765.           0
 4 0.204    0.811  0.01 0.132  25.0     765.           0
 5 0.204    0.811  0.01 0.132  25       765.           0
 6 0.204    0.81   0.01 0.132  25       765.           0
 7 0.204    0.811  0.01 0.132  25.0     765.           0
 8 0.204    0.811  0.01 0.132  25       765.           0
 9 0.204    0.81   0.01 0.132  25.0     765.           0
10 0.204    0.81   0.01 0.132  25.0     765.           0
# ℹ 90 more rows
…
Trying priors of the rate parameter

Like for Experiment 1, rate parameter prior ~ Normal(0.1, 0.01)

Code
fits1_e3 |>
  filter(priors_scenario == "rate", exclude_sp1 == TRUE, convergence == 0) |>
  select(prop:convergence) |>
  arrange(deviance) |>
  mutate_all(round, 3) |>
  print(n = 10)

# A tibble: 98 × 7
    prop prop_ltm  rate   tau  gain deviance convergence
   <dbl>    <dbl> <dbl> <dbl> <dbl>    <dbl>       <dbl>
 1 0.404    0.831 0.021 0.153  7.74     770.           0
 2 0.407    0.832 0.021 0.152  7.65     770.           0
 3 0.408    0.832 0.021 0.152  7.63     770.           0
 4 0.408    0.832 0.021 0.152  7.64     770.           0
 5 0.408    0.832 0.021 0.152  7.62     770.           0
 6 0.408    0.832 0.021 0.152  7.62     770.           0
 7 0.408    0.832 0.021 0.152  7.62     770.           0
 8 0.408    0.832 0.021 0.152  7.62     770.           0
 9 0.408    0.832 0.021 0.152  7.62     770.           0
10 0.409    0.832 0.021 0.152  7.61     770.           0
# ℹ 88 more rows
…
